divider_by4.vcd
$date
	Thu Jun 11 00:31:00 2026
$end
$version
	Icarus Verilog
$end
$timescale
	1ps
$end
$scope module testbench $end
$var wire 1 ! out $end
$var reg 1 " clk $end
$var reg 1 # reset $end
$scope module uut $end
$var wire 1 " clk $end
$var wire 1 # reset $end
$var wire 1 ! out $end
$var reg 2 $ count [1:0] $end
$upscope $end
$upscope $end
$enddefinitions $end
$comment Show the parameter values. $end
$dumpall
$end
#0
$dumpvars
bx $
1#
0"
x!
$end
#2000
0!
b0 $
1"
#3000
0#
#4000
0"
#6000
b1 $
1"
#8000
0"
#10000
1!
b10 $
1"
#12000
0"
#14000
b11 $
1"
#16000
0"
#18000
0!
b0 $
1"
#20000
0"
#22000
b1 $
1"
#24000
0"
#26000
1!
b10 $
1"
#28000
0"
#30000
b11 $
1"
#32000
0"
#34000
0!
b0 $
1"
#36000
0"
#38000
b1 $
1"
#40000
0"
#42000
1!
b10 $
1"
#44000
0"
#46000
b11 $
1"
#48000
0"
#50000
0!
b0 $
1"
#52000
0"
#54000
b1 $
1"
#56000
0"
#58000
1!
b10 $
1"
#60000
0"
#62000
b11 $
1"
#64000
0"
#66000
0!
b0 $
1"
#68000
0"
#70000
b1 $
1"
#72000
0"
#74000
1!
b10 $
1"
#76000
0"
#78000
b11 $
1"
#80000
0"
#82000
0!
b0 $
1"
#84000
0"
#86000
b1 $
1"
#88000
0"
#90000
1!
b10 $
1"
#92000
0"
#94000
b11 $
1"
#96000
0"
#98000
0!
b0 $
1"
#100000
0"
#102000
b1 $
1"
