divider_by7_half.vcd
$date
	Thu Jun 11 00:49:54 2026
$end
$version
	Icarus Verilog
$end
$timescale
	1ps
$end
$scope module testbench $end
$var wire 1 ! out $end
$var reg 1 " clk $end
$var reg 1 # reset $end
$scope module uut $end
$var wire 1 " clk $end
$var wire 1 ! out $end
$var wire 1 # reset $end
$var reg 3 $ countN [2:0] $end
$var reg 3 % countP [2:0] $end
$upscope $end
$upscope $end
$enddefinitions $end
$comment Show the parameter values. $end
$dumpall
$end
#0
$dumpvars
bx %
b0 $
1#
0"
x!
$end
#2000
0!
b0 %
1"
#3000
0#
#4000
b1 $
0"
#6000
b1 %
1"
#8000
b10 $
0"
#10000
b10 %
1"
#12000
b11 $
0"
#14000
b11 %
1"
#16000
1!
b100 $
0"
#18000
b100 %
1"
#20000
b101 $
0"
#22000
b101 %
1"
#24000
b110 $
0"
#26000
b110 %
1"
#28000
b0 $
0"
#30000
0!
b0 %
1"
#32000
b1 $
0"
#34000
b1 %
1"
#36000
b10 $
0"
#38000
b10 %
1"
#40000
b11 $
0"
#42000
b11 %
1"
#44000
1!
b100 $
0"
#46000
b100 %
1"
#48000
b101 $
0"
#50000
b101 %
1"
#52000
b110 $
0"
#54000
b110 %
1"
#56000
b0 $
0"
#58000
0!
b0 %
1"
#60000
b1 $
0"
#62000
b1 %
1"
#64000
b10 $
0"
#66000
b10 %
1"
#68000
b11 $
0"
#70000
b11 %
1"
#72000
1!
b100 $
0"
#74000
b100 %
1"
#76000
b101 $
0"
#78000
b101 %
1"
#80000
b110 $
0"
#82000
b110 %
1"
#84000
b0 $
0"
#86000
0!
b0 %
1"
#88000
b1 $
0"
#90000
b1 %
1"
#92000
b10 $
0"
#94000
b10 %
1"
#96000
b11 $
0"
#98000
b11 %
1"
#100000
1!
b100 $
0"
#102000
b100 %
1"
