divider_by3_half.vcd
$date
	Thu Jun 11 00:43:17 2026
$end
$version
	Icarus Verilog
$end
$timescale
	1ps
$end
$scope module testbench $end
$var wire 1 ! out $end
$var reg 1 " clk $end
$var reg 1 # reset $end
$scope module uut $end
$var wire 1 " clk $end
$var wire 1 ! out $end
$var wire 1 # reset $end
$var reg 2 $ countN [1:0] $end
$var reg 2 % countP [1:0] $end
$upscope $end
$upscope $end
$enddefinitions $end
$comment Show the parameter values. $end
$dumpall
$end
#0
$dumpvars
bx %
b0 $
1#
0"
x!
$end
#2000
0!
b0 %
1"
#3000
0#
#4000
b1 $
0"
#6000
b1 %
1"
#8000
1!
b10 $
0"
#10000
b10 %
1"
#12000
b0 $
0"
#14000
0!
b0 %
1"
#16000
b1 $
0"
#18000
b1 %
1"
#20000
1!
b10 $
0"
#22000
b10 %
1"
#24000
b0 $
0"
#26000
0!
b0 %
1"
#28000
b1 $
0"
#30000
b1 %
1"
#32000
1!
b10 $
0"
#34000
b10 %
1"
#36000
b0 $
0"
#38000
0!
b0 %
1"
#40000
b1 $
0"
#42000
b1 %
1"
#44000
1!
b10 $
0"
#46000
b10 %
1"
#48000
b0 $
0"
#50000
0!
b0 %
1"
#52000
b1 $
0"
#54000
b1 %
1"
#56000
1!
b10 $
0"
#58000
b10 %
1"
#60000
b0 $
0"
#62000
0!
b0 %
1"
#64000
b1 $
0"
#66000
b1 %
1"
#68000
1!
b10 $
0"
#70000
b10 %
1"
#72000
b0 $
0"
#74000
0!
b0 %
1"
#76000
b1 $
0"
#78000
b1 %
1"
#80000
1!
b10 $
0"
#82000
b10 %
1"
#84000
b0 $
0"
#86000
0!
b0 %
1"
#88000
b1 $
0"
#90000
b1 %
1"
#92000
1!
b10 $
0"
#94000
b10 %
1"
#96000
b0 $
0"
#98000
0!
b0 %
1"
#100000
b1 $
0"
#102000
b1 %
1"
