divider_by5_half.vcd
$date
	Thu Jun 11 00:47:19 2026
$end
$version
	Icarus Verilog
$end
$timescale
	1ps
$end
$scope module testbench $end
$var wire 1 ! out $end
$var reg 1 " clk $end
$var reg 1 # reset $end
$scope module uut $end
$var wire 1 " clk $end
$var wire 1 ! out $end
$var wire 1 # reset $end
$var reg 3 $ countN [2:0] $end
$var reg 3 % countP [2:0] $end
$upscope $end
$upscope $end
$enddefinitions $end
$comment Show the parameter values. $end
$dumpall
$end
#0
$dumpvars
bx %
b1 $
1#
0"
x!
$end
#2000
0!
b1 %
1"
#3000
0#
#4000
1!
b10 $
0"
#6000
b10 %
1"
#8000
b11 $
0"
#10000
b11 %
1"
#12000
b100 $
0"
#14000
0!
b100 %
1"
#16000
b101 $
0"
#18000
b101 %
1"
#20000
b1 $
0"
#22000
b1 %
1"
#24000
1!
b10 $
0"
#26000
b10 %
1"
#28000
b11 $
0"
#30000
b11 %
1"
#32000
b100 $
0"
#34000
0!
b100 %
1"
#36000
b101 $
0"
#38000
b101 %
1"
#40000
b1 $
0"
#42000
b1 %
1"
#44000
1!
b10 $
0"
#46000
b10 %
1"
#48000
b11 $
0"
#50000
b11 %
1"
#52000
b100 $
0"
#54000
0!
b100 %
1"
#56000
b101 $
0"
#58000
b101 %
1"
#60000
b1 $
0"
#62000
b1 %
1"
#64000
1!
b10 $
0"
#66000
b10 %
1"
#68000
b11 $
0"
#70000
b11 %
1"
#72000
b100 $
0"
#74000
0!
b100 %
1"
#76000
b101 $
0"
#78000
b101 %
1"
#80000
b1 $
0"
#82000
b1 %
1"
#84000
1!
b10 $
0"
#86000
b10 %
1"
#88000
b11 $
0"
#90000
b11 %
1"
#92000
b100 $
0"
#94000
0!
b100 %
1"
#96000
b101 $
0"
#98000
b101 %
1"
#100000
b1 $
0"
#102000
b1 %
1"
